<?xml version="1.0" encoding="UTF-8"?>
<svg width="17px" height="13px" viewBox="0 0 17 13" version="1.1" xmlns="http://www.w3.org/2000/svg" xmlns:xlink="http://www.w3.org/1999/xlink">
    <!-- Generator: Sketch 46.1 (44463) - http://www.bohemiancoding.com/sketch -->
    <title>Shape</title>
    <desc>Created with Sketch.</desc>
    <defs></defs>
    <g id="Desktop" stroke="none" stroke-width="1" fill="none" fill-rule="evenodd">
        <g id="header-products-menu@2x" transform="translate(-119.000000, -2337.000000)" stroke="#FFFFFF" stroke-width="0.8" fill="#FFFFFF" fill-rule="nonzero">
            <g id="Footer" transform="translate(0.000000, 2252.000000)">
                <g id="Contact-us" transform="translate(120.000000, 42.000000)">
                    <g id="Website" transform="translate(0.000000, 39.000000)">
                        <path d="M15,5 L0,5 L0,16.25 L15,16.25 L15,5 Z M7.5,11.43125 L1.05769231,5.75 L13.9615385,5.75 L7.5,11.43125 Z M5.11538462,10.325 L0.769230769,14.91875 L0.769230769,6.51875 L5.11538462,10.325 Z M5.67307692,10.83125 L7.5,12.425 L9.34615385,10.8125 L13.6153846,15.5 L1.25,15.5 L5.67307692,10.83125 Z M9.92307692,10.30625 L14.2307692,6.51875 L14.2307692,15.05 L9.92307692,10.30625 Z" id="Shape"></path>
                    </g>
                </g>
            </g>
        </g>
    </g>
</svg>