<?xml version="1.0" encoding="UTF-8"?>
<svg width="74px" height="74px" viewBox="0 0 74 74" version="1.1" xmlns="http://www.w3.org/2000/svg" xmlns:xlink="http://www.w3.org/1999/xlink">
    <!-- Generator: Sketch 46.1 (44463) - http://www.bohemiancoding.com/sketch -->
    <title>Play Icon</title>
    <desc>Created with Sketch.</desc>
    <defs></defs>
    <g id="Desktop" stroke="none" stroke-width="1" fill="none" fill-rule="evenodd">
        <g id="header-products-menu@2x" transform="translate(-683.000000, -1162.000000)" stroke="#FFFFFF">
            <g id="Introducing-Tilray-profiles-/-Video" transform="translate(0.000000, 875.000000)">
                <g id="Play-Icon" transform="translate(686.000000, 290.000000)">
                    <circle id="Oval-2" stroke-width="5" cx="34" cy="34" r="34"></circle>
                    <polygon id="Triangle" fill="#FFFFFF" points="44.6873614 33.7172949 27.2727273 46.5709534 27.2727273 20.8636364"></polygon>
                </g>
            </g>
        </g>
    </g>
</svg>