<?xml version="1.0" encoding="UTF-8"?>
<svg width="11px" height="10px" viewBox="0 0 11 10" version="1.1" xmlns="http://www.w3.org/2000/svg" xmlns:xlink="http://www.w3.org/1999/xlink">
    <!-- Generator: Sketch 46.1 (44463) - http://www.bohemiancoding.com/sketch -->
    <title>Group</title>
    <desc>Created with Sketch.</desc>
    <defs></defs>
    <g id="Desktop" stroke="none" stroke-width="1" fill="none" fill-rule="evenodd">
        <g id="header-products-menu@2x" transform="translate(-254.000000, -162.000000)" fill="#404040">
            <g id="Group" transform="translate(254.000000, 162.000000)">
                <rect id="Rectangle-10" x="5" y="0" width="1" height="10"></rect>
                <rect id="Rectangle-10" transform="translate(5.500000, 5.000000) rotate(90.000000) translate(-5.500000, -5.000000) " x="5" y="0" width="1" height="10"></rect>
            </g>
        </g>
    </g>
</svg>