<?xml version="1.0" encoding="UTF-8"?>
<svg width="14px" height="11px" viewBox="0 0 14 11" version="1.1" xmlns="http://www.w3.org/2000/svg" xmlns:xlink="http://www.w3.org/1999/xlink">
    <!-- Generator: Sketch 46.1 (44463) - http://www.bohemiancoding.com/sketch -->
    <title>Twitter Icon</title>
    <desc>Created with Sketch.</desc>
    <defs></defs>
    <g id="Desktop" stroke="none" stroke-width="1" fill="none" fill-rule="evenodd">
        <g id="header-mini-cart-no-products@2x" transform="translate(-293.000000, -9.000000)" fill="#FFFFFF">
            <g id="Top-bar">
                <path d="M305.568279,11.7384561 C305.573809,11.8580266 305.576825,11.9785692 305.576825,12.0991118 C305.576825,15.7693429 302.688247,20 297.403246,20 C295.780998,20 294.270854,19.5416464 293,18.7532588 C293.224712,18.7790199 293.453445,18.7921435 293.685195,18.7921435 C295.031455,18.7921435 296.269633,18.3478856 297.252935,17.6032433 C295.996158,17.5808846 294.934935,16.7779152 294.569464,15.6740754 C294.744407,15.7061553 294.924881,15.7241395 295.109376,15.7241395 C295.371288,15.7241395 295.62566,15.6910874 295.866458,15.6274137 C294.552372,15.3727188 293.562534,14.2504087 293.562534,12.9040255 C293.562534,12.89236 293.562534,12.8802086 293.563036,12.8690292 C293.950124,13.0765764 294.393012,13.2019796 294.86355,13.2160753 C294.093397,12.718837 293.586161,11.8682338 293.586161,10.904865 C293.586161,10.3954752 293.727423,9.91816535 293.974757,9.5079316 C295.390894,11.1887234 297.508313,12.2940215 299.895185,12.4106756 C299.845919,12.2070169 299.821286,11.9955813 299.821286,11.7773408 C299.821286,10.2438248 301.107221,9 302.693274,9 C303.519731,9 304.265252,9.33732491 304.790082,9.87685034 C305.445115,9.75241925 306.058422,9.52202731 306.614923,9.20268658 C306.398758,9.85157527 305.94481,10.3954752 305.350102,10.739605 C305.931739,10.6725288 306.486732,10.5237948 307,10.302638 C306.616934,10.8586894 306.129807,11.3481508 305.568279,11.7384561 Z" id="Twitter-Icon"></path>
            </g>
        </g>
    </g>
</svg>