<?xml version="1.0" encoding="UTF-8"?>
<svg width="39px" height="39px" viewBox="0 0 39 39" version="1.1" xmlns="http://www.w3.org/2000/svg" xmlns:xlink="http://www.w3.org/1999/xlink">
    <!-- Generator: Sketch 46.1 (44463) - http://www.bohemiancoding.com/sketch -->
    <title>Clip 2</title>
    <desc>Created with Sketch.</desc>
    <defs>
        <path d="M28.5318976,29.1832588 C23.0294596,26.8793174 22.0381959,25.8268996 21.8625559,25.5211296 L21.8625559,24.4758228 C22.7855547,23.4589598 23.5080252,22.1292158 23.965258,20.6074766 C24.6543072,20.0243803 25.0596302,19.1568468 25.0596302,18.2324258 C25.0596302,17.606664 24.8726128,17.0093458 24.5170662,16.4902479 L24.5170662,13.4325477 C24.5170662,9.3437627 21.9898415,6.99715563 17.5831979,6.99715563 C13.2405526,6.99715563 10.6471963,9.40065014 10.6471963,13.4325477 L10.6471963,16.4902479 C10.2966274,17.0093458 10.1060544,17.6208858 10.1060544,18.2324258 C10.1060544,19.1568468 10.5099553,20.0243803 11.1990045,20.6074766 C11.6569484,22.1292158 12.3787078,23.4589598 13.3024177,24.4758228 L13.3024177,25.5211296 C13.1253555,25.8340106 12.1220033,26.8935392 6.51859,29.2259244 C3.38551402,26.2891101 1.4221861,22.1221048 1.4221861,17.5 C1.4221861,8.63266965 8.63480293,1.4221861 17.5,1.4221861 C26.3651971,1.4221861 33.5778139,8.63266965 33.5778139,17.5 C33.5778139,22.100772 31.6351077,26.2464445 28.5318976,29.1832588 L28.5318976,29.1832588 Z M7.73242584,30.2570093 C13.3834823,27.8464039 14.4394555,26.6873222 14.6926046,25.8766761 C14.7139374,25.8055668 14.7246038,25.7344575 14.7246038,25.6633482 L14.7246038,24.1913856 C14.7246038,24.0065014 14.6520723,23.8287282 14.5219423,23.6936205 C13.6202763,22.7763104 12.9219829,21.496343 12.502438,19.9959366 C12.4583503,19.8323852 12.3609305,19.6972775 12.227245,19.6048354 C11.7892117,19.2919545 11.5282406,18.7799675 11.5282406,18.2324258 C11.5282406,17.7488826 11.7358797,17.393336 11.9100975,17.1800081 C12.013206,17.0520114 12.0693824,16.88846 12.0693824,16.7249086 L12.0693824,13.4325477 C12.0693824,10.1970744 14.0277326,8.41934173 17.5831979,8.41934173 C21.1891508,8.41934173 23.0948801,10.1472978 23.0948801,13.4325477 L23.0948801,16.7249086 C23.0948801,16.88846 23.1510565,17.0520114 23.254165,17.1728972 C23.4290939,17.393336 23.6374441,17.7488826 23.6374441,18.2324258 C23.6374441,18.7870784 23.3757619,19.2919545 22.9377286,19.6048354 C22.803332,19.6972775 22.7059122,19.8323852 22.6618245,19.9959366 C22.2422796,21.496343 21.5439862,22.7763104 20.6430313,23.6936205 C20.5129013,23.8287282 20.4403698,24.0065014 20.4403698,24.1913856 L20.4403698,25.6633482 C20.4403698,25.7344575 20.4510362,25.8055668 20.47308,25.8766761 C20.724807,26.6873222 21.7658472,27.832182 27.3258838,30.2143438 C24.606664,32.3191792 21.198395,33.5778139 17.5,33.5778139 C13.8279155,33.5778139 10.4424015,32.340512 7.73242584,30.2570093 L7.73242584,30.2570093 Z M17.5,0 C7.85046729,0 0,7.85046729 0,17.5 C0,27.1495327 7.85046729,35 17.5,35 C27.1495327,35 35,27.1495327 35,17.5 C35,7.85046729 27.1495327,0 17.5,0 L17.5,0 Z" id="path-1"></path>
    </defs>
    <g id="Mobile" stroke="none" stroke-width="1" fill="none" fill-rule="evenodd">
        <g id="header-navigation-account@2x" transform="translate(-387.000000, -158.000000)">
            <g id="Menu-/-Account" transform="translate(0.000000, 128.000000)">
                <g id="Account" transform="translate(325.000000, 0.000000)">
                    <g id="Account-+-Icon" transform="translate(64.000000, 32.000000)">
                        <mask id="mask-2" fill="white">
                            <use xlink:href="#path-1"></use>
                        </mask>
                        <use id="Clip-2" stroke="#404040" stroke-width="2.5" fill="#404040" xlink:href="#path-1"></use>
                    </g>
                </g>
            </g>
        </g>
    </g>
</svg>