<?xml version="1.0" encoding="UTF-8"?>
<svg width="15px" height="15px" viewBox="0 0 15 15" version="1.1" xmlns="http://www.w3.org/2000/svg" xmlns:xlink="http://www.w3.org/1999/xlink">
    <!-- Generator: Sketch 46.1 (44463) - http://www.bohemiancoding.com/sketch -->
    <title>World Icon</title>
    <desc>Created with Sketch.</desc>
    <defs></defs>
    <g id="Desktop" stroke="none" stroke-width="1" fill="none" fill-rule="evenodd">
        <g id="header-mini-cart-no-products@2x" transform="translate(-134.000000, -7.000000)" fill-rule="nonzero" fill="#FFFFFF">
            <g id="Top-bar">
                <g id="International" transform="translate(134.000000, 6.000000)">
                    <path d="M7.5,1 C3.375,1 0,4.375 0,8.5 C0,12.625 3.375,16 7.5,16 C11.625,16 15,12.625 15,8.5 C15,4.375 11.625,1 7.5,1 Z M12.675,5.5 L10.275,5.5 C10.125,4.525 9.9,3.625 9.525,2.875 C10.875,3.325 12,4.3 12.675,5.5 Z M7.5,2.5 C7.8,2.5 8.4,3.55 8.775,5.5 L6.225,5.5 C6.6,3.55 7.2,2.5 7.5,2.5 Z M5.475,2.875 C5.1,3.625 4.875,4.525 4.725,5.5 L2.325,5.5 C3,4.3 4.125,3.325 5.475,2.875 Z M1.725,10 C1.575,9.55 1.5,9.025 1.5,8.5 C1.5,7.975 1.575,7.45 1.725,7 L4.575,7 C4.5,7.525 4.5,7.975 4.5,8.5 C4.5,9.025 4.5,9.475 4.575,10 L1.725,10 Z M2.325,11.5 L4.725,11.5 C4.875,12.475 5.1,13.375 5.4,14.125 C4.125,13.675 3,12.7 2.325,11.5 Z M7.5,14.5 C7.2,14.5 6.6,13.45 6.225,11.5 L8.7,11.5 C8.4,13.45 7.8,14.5 7.5,14.5 Z M8.925,10 L6.075,10 C6,9.55 6,9.025 6,8.5 C6,7.975 6,7.45 6.075,7 L8.925,7 C8.925,7.45 9,7.975 9,8.5 C9,9.025 9,9.55 8.925,10 Z M9.525,14.125 C9.825,13.375 10.05,12.475 10.275,11.5 L12.675,11.5 C12,12.7 10.875,13.675 9.525,14.125 Z M10.425,10 C10.425,9.475 10.5,9.025 10.5,8.5 C10.5,7.975 10.5,7.525 10.425,7 L13.275,7 C13.425,7.45 13.5,7.975 13.5,8.5 C13.5,9.025 13.425,9.55 13.275,10 L10.425,10 Z" id="World-Icon"></path>
                </g>
            </g>
        </g>
    </g>
</svg>